cr\ac\ucr\servlet\modificarProducto.class
cr\ac\ucr\dominio\Producto.class
cr\ac\ucr\servlet\consultarCliente.class
cr\ac\ucr\servlet\insertarPedido.class
cr\ac\ucr\data\dataCliente.class
cr\ac\ucr\data\dataPedido.class
cr\ac\ucr\servlet\consultarProducto.class
cr\ac\ucr\servlet\insertarCliente.class
cr\ac\ucr\servlet\eliminarPedido.class
cr\ac\ucr\negocio\LogicaCliente.class
cr\ac\ucr\negocio\LogicaPedido.class
cr\ac\ucr\servlet\consultarDetalle.class
cr\ac\ucr\servlet\insertarProducto.class
cr\ac\ucr\dominio\Cliente.class
cr\ac\ucr\dominio\Detalle.class
cr\ac\ucr\data\Conexion.class
cr\ac\ucr\servlet\eliminarCliente.class
cr\ac\ucr\servlet\eliminarProducto.class
cr\ac\ucr\servlet\consultarPedido.class
cr\ac\ucr\data\dataProducto.class
cr\ac\ucr\negocio\LogicaProducto.class
cr\ac\ucr\servlet\modificarCliente.class
cr\ac\ucr\dominio\Pedido.class
